generated/ProgramCounter.vcd
$date
2020-10-28T15:25+0000
$end
$version
0.2
$end
$comment

$end
$timescale 1ns  $end
$scope module ProgramCounter $end
 $var wire 16 ! _GEN_2 $end
 $var wire 1 " _T $end
 $var wire 1 # io_branch $end
 $var wire 16 $ _GEN_5 $end
 $var wire 16 % cnt $end
 $var wire 1 & io_jump $end
 $var wire 1 ' io_stop $end
 $var wire 16 ( io_programCounter $end
 $var wire 16 ) _GEN_1 $end
 $var wire 16 * _GEN_4 $end
 $var wire 1 + clock $end
 $var wire 16 , io_programCounterJump $end
 $var wire 16 - _GEN_0 $end
 $var wire 1 . reset $end
 $var wire 16 / _GEN_3 $end
 $var wire 8 0 io_programCounterOffset $end
 $var wire 1 1 io_run $end
$upscope $end
$enddefinitions $end
$dumpvars
b0000000000000000 $
0&
b0000000000000000 %
b00000000 0
0'
b0000000000000000 ,
0.
b0000000000000000 -
0"
01
b0000000000000000 (
0#
b0000000000000000 /
b0000000000000000 )
b0000000000000000 !
0+
b0000000000000000 *
$end
#0
b0000000000000001 !
1"
1.
b0000000011111111 *
b0000000000000001 )
#1
1+
#6
0+
#11
1+
#16
0+
#21
1+
#26
0+
#31
1+
#36
0+
#41
1+
#46
0"
11
0.
0+
b0000000000000001 /
#51
b0000000000000010 !
b0000000000000001 -
b0000000000000001 %
1+
b0000000000000001 (
b0000000000000010 /
b0000000000000010 )
#56
0+
#61
b0000000000000011 !
b0000000000000010 -
b0000000000000010 %
1+
b0000000000000010 (
b0000000000000011 /
b0000000000000011 )
#66
0+
#71
b0000000000000100 !
b0000000000000011 -
b0000000000000011 %
1+
b0000000000000011 (
b0000000000000100 /
b0000000000000100 )
#76
0+
#81
b0000000000000101 !
b0000000000000100 -
b0000000000000100 %
1+
b0000000000000100 (
b0000000000000101 /
b0000000000000101 )
#86
0+
#91
b0000000000000110 !
b0000000000000101 -
b0000000000000101 %
1+
b0000000000000101 (
b0000000000000110 /
b0000000000000110 )
#96
1'
0+
b0000000000000101 /
#101
1+
#106
0+
#111
1+
#116
0+
#121
1+
#126
0+
#131
1+
#136
0+
#141
1+
#146
1"
01
0'
0+
#151
1+
#156
0+
#161
1+
#166
0+
#171
1+
#176
0+
#181
1+
#186
0+
#191
1+
#196
b0000000000011110 !
0"
11
1&
0+
b0000000000011110 /
b0000000000011110 ,
b0000000000011110 )
#201
b0000000000011110 -
b0000000000011110 %
1+
b0000000000011110 (
#206
b0000000000011111 !
0&
0+
b0000000000011111 /
b0000000000000000 ,
b0000000000011111 )
#211
b0000000000100000 !
b0000000000011111 -
b0000000000011111 %
1+
b0000000000011111 (
b0000000000100000 /
b0000000000100000 )
#216
0+
#221
b0000000000100001 !
b0000000000100000 -
b0000000000100000 %
1+
b0000000000100000 (
b0000000000100001 /
b0000000000100001 )
#226
0+
#231
b0000000000100010 !
b0000000000100001 -
b0000000000100001 %
1+
b0000000000100001 (
b0000000000100010 /
b0000000000100010 )
#236
0+
#241
b0000000000100011 !
b0000000000100010 -
b0000000000100010 %
1+
b0000000000100010 (
b0000000000100011 /
b0000000000100011 )
#246
0+
#251
b0000000000100100 !
b0000000000100011 -
b0000000000100011 %
1+
b0000000000100011 (
b0000000000100100 /
b0000000000100100 )
#256
b0000000000101000 !
b00000101 0
b0000000000101000 -
1#
b0000000011111010 *
b0000000000000101 $
0+
b0000000000101000 /
#261
b0000000000101101 !
b0000000000101101 -
b0000000000101000 %
1+
b0000000000101000 (
b0000000000101101 /
b0000000000101001 )
#266
b0000000000101001 !
b00000000 0
b0000000000101000 -
0#
b0000000011111111 *
b0000000000000000 $
0+
b0000000000101001 /
#271
b0000000000101010 !
b0000000000101001 -
b0000000000101001 %
1+
b0000000000101001 (
b0000000000101010 /
b0000000000101010 )
#276
0+
#281
b0000000000101011 !
b0000000000101010 -
b0000000000101010 %
1+
b0000000000101010 (
b0000000000101011 /
b0000000000101011 )
#286
0+
#291
b0000000000101100 !
b0000000000101011 -
b0000000000101011 %
1+
b0000000000101011 (
b0000000000101100 /
b0000000000101100 )
#296
0+
#301
b0000000000101101 !
b0000000000101100 -
b0000000000101100 %
1+
b0000000000101100 (
b0000000000101101 /
b0000000000101101 )
#306
0+
#311
b0000000000101110 !
b0000000000101101 -
b0000000000101101 %
1+
b0000000000101101 (
b0000000000101110 /
b0000000000101110 )
#316
b0000000000101000 !
b11111011 0
b0000000000101000 -
1#
b0000000000000100 *
b0000000011111011 $
0+
b0000000000101000 /
#321
b0000000000100011 !
b0000000000100011 -
b0000000000101000 %
1+
b0000000000101000 (
b0000000000100011 /
b0000000000101001 )
#326
b0000000000101001 !
b00000000 0
b0000000000101000 -
0#
b0000000011111111 *
b0000000000000000 $
0+
b0000000000101001 /
#331
b0000000000101010 !
b0000000000101001 -
b0000000000101001 %
1+
b0000000000101001 (
b0000000000101010 /
b0000000000101010 )
#336
0+
#341
b0000000000101011 !
b0000000000101010 -
b0000000000101010 %
1+
b0000000000101010 (
b0000000000101011 /
b0000000000101011 )
#346
0+
#351
b0000000000101100 !
b0000000000101011 -
b0000000000101011 %
1+
b0000000000101011 (
b0000000000101100 /
b0000000000101100 )
#356
0+
#361
b0000000000101101 !
b0000000000101100 -
b0000000000101100 %
1+
b0000000000101100 (
b0000000000101101 /
b0000000000101101 )
#366
0+
#371
b0000000000101110 !
b0000000000101101 -
b0000000000101101 %
1+
b0000000000101101 (
b0000000000101110 /
b0000000000101110 )
